module importCSV2DB

go 1.17

require (
	github.com/lib/pq v1.10.4
	gorm.io/driver/postgres v1.2.1
	gorm.io/gorm v1.22.2
)

require (
	github.com/jackc/chunkreader/v2 v2.0.1 // indirect
	github.com/jackc/pgconn v1.10.0 // indirect
	github.com/jackc/pgio v1.0.0 // indirect
	github.com/jackc/pgpassfile v1.0.0 // indirect
	github.com/jackc/pgproto3/v2 v2.1.1 // indirect
	github.com/jackc/pgservicefile v0.0.0-20200714003250-2b9c44734f2b // indirect
	github.com/jackc/pgtype v1.8.1 // indirect
	github.com/jackc/pgx/v4 v4.13.0 // indirect
	github.com/jinzhu/inflection v1.0.0 // indirect
	github.com/jinzhu/now v1.1.2 // indirect
	golang.org/x/crypto v0.0.0-20210921155107-089bfa567519 // indirect
	golang.org/x/text v0.3.7 // indirect
)
